{"code":200,"msg":"操作成功","params":{"endRow":39,"firstPage":1,"hasNextPage":true,"hasPreviousPage":false,"isFirstPage":true,"isLastPage":false,"lastPage":2,"list":[{"contentTypeName":"","domain":"wpsgo.com","domainId":190000631970,"homeUrl":"www.wpsgo.com","leaderName":"","limitAccess":"否","mainId":190000215493,"mainLicence":"粤ICP备13015957号","natureName":"企业","serviceId":190000501004,"serviceLicence":"粤ICP备13015957号-6","serviceName":"WPS Office在线商店","unitName":"珠海金山办公软件有限公司","updateRecordTime":"2020-06-09 10:02:23"},{"contentTypeName":"","domain":"wpsit.cn","domainId":10005592692,"homeUrl":"www.wpsit.cn","leaderName":"","limitAccess":"否","mainId":190000215493,"mainLicence":"粤ICP备13015957号","natureName":"企业","serviceId":10002444203,"serviceLicence":"粤ICP备13015957号-33","serviceName":"WPS订单管理系统","unitName":"珠海金山办公软件有限公司","updateRecordTime":"2020-06-09 10:02:23"},{"contentTypeName":"","domain":"ksosoft.com","domainId":10004791994,"homeUrl":"www.ksosoft.com","leaderName":"","limitAccess":"否","mainId":190000215493,"mainLicence":"粤ICP备13015957号","natureName":"企业","serviceId":10001804110,"serviceLicence":"粤ICP备13015957号-15","serviceName":"KSO部门主域名","unitName":"珠海金山办公软件有限公司","updateRecordTime":"2020-06-09 10:02:23"},{"contentTypeName":"","domain":"wpsep.net","domainId":10004844364,"homeUrl":"www.wpsep.net","leaderName":"","limitAccess":"否","mainId":190000215493,"mainLicence":"粤ICP备13015957号","natureName":"企业","serviceId":10001843184,"serviceLicence":"粤ICP备13015957号-19","serviceName":"WPS+一站式云办公服务试用站点","unitName":"珠海金山办公软件有限公司","updateRecordTime":"2020-06-09 10:02:23"},{"contentTypeName":"","domain":"xiutang15.cn","domainId":10004924550,"homeUrl":"www.xiutang01.cn","leaderName":"","limitAccess":"否","mainId":190000215493,"mainLicence":"粤ICP备13015957号","natureName":"企业","serviceId":10001901050,"serviceLicence":"粤ICP备13015957号-22","serviceName":"WPS秀堂","unitName":"珠海金山办公软件有限公司","updateRecordTime":"2020-06-09 10:02:23"},{"contentTypeName":"","domain":"xiutang02.cn","domainId":10004924537,"homeUrl":"www.xiutang01.cn","leaderName":"","limitAccess":"否","mainId":190000215493,"mainLicence":"粤ICP备13015957号","natureName":"企业","serviceId":10001901050,"serviceLicence":"粤ICP备13015957号-22","serviceName":"WPS秀堂","unitName":"珠海金山办公软件有限公司","updateRecordTime":"2020-06-09 10:02:23"},{"contentTypeName":"","domain":"kingsoft-office-service.com","domainId":10004924525,"homeUrl":"www.kingsoft-office-service.com","leaderName":"","limitAccess":"否","mainId":190000215493,"mainLicence":"粤ICP备13015957号","natureName":"企业","serviceId":10001901036,"serviceLicence":"粤ICP备13015957号-21","serviceName":"安卓运营服务","unitName":"珠海金山办公软件有限公司","updateRecordTime":"2020-06-09 10:02:23"},{"contentTypeName":"","domain":"ksoapp.com","domainId":10004986057,"homeUrl":"www.ksoapp.com","leaderName":"","limitAccess":"否","mainId":190000215493,"mainLicence":"粤ICP备13015957号","natureName":"企业","serviceId":10001947466,"serviceLicence":"粤ICP备13015957号-24","serviceName":"KSO应用服务中心","unitName":"珠海金山办公软件有限公司","updateRecordTime":"2020-06-09 10:02:23"},{"contentTypeName":"","domain":"springen.cn","domainId":10005077735,"homeUrl":"www.springen.cn","leaderName":"","limitAccess":"否","mainId":190000215493,"mainLicence":"粤ICP备13015957号","natureName":"企业","serviceId":10002016496,"serviceLicence":"粤ICP备13015957号-25","serviceName":"URL地址跳转服务","unitName":"珠海金山办公软件有限公司","updateRecordTime":"2020-06-09 10:02:23"},{"contentTypeName":"","domain":"wps.cn","domainId":190000444012,"homeUrl":"www.wps.cn","leaderName":"","limitAccess":"否","mainId":190000215493,"mainLicence":"粤ICP备13015957号","natureName":"企业","serviceId":190000338860,"serviceLicence":"粤ICP备13015957号-1","serviceName":"WPS Office 官方网站","unitName":"珠海金山办公软件有限公司","updateRecordTime":"2020-06-09 10:02:23"},{"contentTypeName":"","domain":"qwps.net","domainId":10005485285,"homeUrl":"www.qwps.net","leaderName":"","limitAccess":"否","mainId":190000215493,"mainLicence":"粤ICP备13015957号","natureName":"企业","serviceId":10002336905,"serviceLicence":"粤ICP备13015957号-32","serviceName":"WPS云办公官方网站","unitName":"珠海金山办公软件有限公司","updateRecordTime":"2020-06-09 10:02:23"},{"contentTypeName":"","domain":"coh5.cn","domainId":10004746661,"homeUrl":"www.wpsxiu.cn","leaderName":"","limitAccess":"否","mainId":190000215493,"mainLicence":"粤ICP备13015957号","natureName":"企业","serviceId":10001773618,"serviceLicence":"粤ICP备13015957号-13","serviceName":"秀堂","unitName":"珠海金山办公软件有限公司","updateRecordTime":"2020-06-09 10:02:23"},{"contentTypeName":"","domain":"wps-h5.cn","domainId":10004746662,"homeUrl":"www.wpsxiu.cn","leaderName":"","limitAccess":"否","mainId":190000215493,"mainLicence":"粤ICP备13015957号","natureName":"企业","serviceId":10001773618,"serviceLicence":"粤ICP备13015957号-13","serviceName":"秀堂","unitName":"珠海金山办公软件有限公司","updateRecordTime":"2020-06-09 10:02:23"},{"contentTypeName":"","domain":"wpseco.cn","domainId":10004842884,"homeUrl":"www.wpseco.cn","leaderName":"","limitAccess":"否","mainId":190000215493,"mainLicence":"粤ICP备13015957号","natureName":"企业","serviceId":10001842087,"serviceLicence":"粤ICP备13015957号-18","serviceName":"WPS云协作园区版","unitName":"珠海金山办公软件有限公司","updateRecordTime":"2020-06-09 10:02:23"},{"contentTypeName":"","domain":"xindexuexi.com","domainId":10005177429,"homeUrl":"www.xindexuexi.com","leaderName":"","limitAccess":"否","mainId":190000215493,"mainLicence":"粤ICP备13015957号","natureName":"企业","serviceId":10002091863,"serviceLicence":"粤ICP备13015957号-28","serviceName":"心得学习","unitName":"珠海金山办公软件有限公司","updateRecordTime":"2020-06-09 10:02:23"},{"contentTypeName":"","domain":"xindexuexi.cn","domainId":10005177430,"homeUrl":"www.xindexuexi.com","leaderName":"","limitAccess":"否","mainId":190000215493,"mainLicence":"粤ICP备13015957号","natureName":"企业","serviceId":10002091863,"serviceLicence":"粤ICP备13015957号-28","serviceName":"心得学习","unitName":"珠海金山办公软件有限公司","updateRecordTime":"2020-06-09 10:02:23"},{"contentTypeName":"","domain":"ksord.com","domainId":10004923955,"homeUrl":"www.ksord.com","leaderName":"","limitAccess":"否","mainId":190000215493,"mainLicence":"粤ICP备13015957号","natureName":"企业","serviceId":10001900595,"serviceLicence":"粤ICP备13015957号-20","serviceName":"金山办公软件运营研发","unitName":"珠海金山办公软件有限公司","updateRecordTime":"2020-06-09 10:02:23"},{"contentTypeName":"","domain":"xiutang16.cn","domainId":10004924551,"homeUrl":"www.xiutang01.cn","leaderName":"","limitAccess":"否","mainId":190000215493,"mainLicence":"粤ICP备13015957号","natureName":"企业","serviceId":10001901050,"serviceLicence":"粤ICP备13015957号-22","serviceName":"WPS秀堂","unitName":"珠海金山办公软件有限公司","updateRecordTime":"2020-06-09 10:02:23"},{"contentTypeName":"","domain":"xiutang13.cn","domainId":10004924548,"homeUrl":"www.xiutang01.cn","leaderName":"","limitAccess":"否","mainId":190000215493,"mainLicence":"粤ICP备13015957号","natureName":"企业","serviceId":10001901050,"serviceLicence":"粤ICP备13015957号-22","serviceName":"WPS秀堂","unitName":"珠海金山办公软件有限公司","updateRecordTime":"2020-06-09 10:02:23"},{"contentTypeName":"","domain":"xiutang09.cn","domainId":10004924544,"homeUrl":"www.xiutang01.cn","leaderName":"","limitAccess":"否","mainId":190000215493,"mainLicence":"粤ICP备13015957号","natureName":"企业","serviceId":10001901050,"serviceLicence":"粤ICP备13015957号-22","serviceName":"WPS秀堂","unitName":"珠海金山办公软件有限公司","updateRecordTime":"2020-06-09 10:02:23"},{"contentTypeName":"","domain":"xiutang08.cn","domainId":10004924543,"homeUrl":"www.xiutang01.cn","leaderName":"","limitAccess":"否","mainId":190000215493,"mainLicence":"粤ICP备13015957号","natureName":"企业","serviceId":10001901050,"serviceLicence":"粤ICP备13015957号-22","serviceName":"WPS秀堂","unitName":"珠海金山办公软件有限公司","updateRecordTime":"2020-06-09 10:02:23"},{"contentTypeName":"","domain":"xiutang06.cn","domainId":10004924541,"homeUrl":"www.xiutang01.cn","leaderName":"","limitAccess":"否","mainId":190000215493,"mainLicence":"粤ICP备13015957号","natureName":"企业","serviceId":10001901050,"serviceLicence":"粤ICP备13015957号-22","serviceName":"WPS秀堂","unitName":"珠海金山办公软件有限公司","updateRecordTime":"2020-06-09 10:02:23"},{"contentTypeName":"","domain":"xiutang04.cn","domainId":10004924539,"homeUrl":"www.xiutang01.cn","leaderName":"","limitAccess":"否","mainId":190000215493,"mainLicence":"粤ICP备13015957号","natureName":"企业","serviceId":10001901050,"serviceLicence":"粤ICP备13015957号-22","serviceName":"WPS秀堂","unitName":"珠海金山办公软件有限公司","updateRecordTime":"2020-06-09 10:02:23"},{"contentTypeName":"","domain":"xiutang03.cn","domainId":10004924538,"homeUrl":"www.xiutang01.cn","leaderName":"","limitAccess":"否","mainId":190000215493,"mainLicence":"粤ICP备13015957号","natureName":"企业","serviceId":10001901050,"serviceLicence":"粤ICP备13015957号-22","serviceName":"WPS秀堂","unitName":"珠海金山办公软件有限公司","updateRecordTime":"2020-06-09 10:02:23"},{"contentTypeName":"","domain":"wpsplus.com","domainId":10004986005,"homeUrl":"www.wpsplus.com","leaderName":"","limitAccess":"否","mainId":190000215493,"mainLicence":"粤ICP备13015957号","natureName":"企业","serviceId":10001947415,"serviceLicence":"粤ICP备13015957号-23","serviceName":"WPS 一站式办公云平台","unitName":"珠海金山办公软件有限公司","updateRecordTime":"2020-06-09 10:02:23"},{"contentTypeName":"","domain":"wpspdf.cn","domainId":10005230735,"homeUrl":"www.wpspdf.cn","leaderName":"","limitAccess":"否","mainId":190000215493,"mainLicence":"粤ICP备13015957号","natureName":"企业","serviceId":10002129165,"serviceLicence":"粤ICP备13015957号-30","serviceName":"金山PDF官网","unitName":"珠海金山办公软件有限公司","updateRecordTime":"2020-06-09 10:02:23"},{"contentTypeName":"","domain":"zhishifanli.com","domainId":10005094850,"homeUrl":"www.zhishifanli.com","leaderName":"","limitAccess":"否","mainId":190000215493,"mainLicence":"粤ICP备13015957号","natureName":"企业","serviceId":10002029313,"serviceLicence":"粤ICP备13015957号-27","serviceName":"知识返利","unitName":"珠海金山办公软件有限公司","updateRecordTime":"2020-06-09 10:02:23"},{"contentTypeName":"","domain":"wpscdn.com","domainId":10005485284,"homeUrl":"www.wpscdn.com","leaderName":"","limitAccess":"否","mainId":190000215493,"mainLicence":"粤ICP备13015957号","natureName":"企业","serviceId":10002336904,"serviceLicence":"粤ICP备13015957号-31","serviceName":"WPS CDN源","unitName":"珠海金山办公软件有限公司","updateRecordTime":"2020-06-09 10:02:23"},{"contentTypeName":"文化、文化、文化、文化、文化","domain":"typeeasy.cn","domainId":190000494476,"homeUrl":"www.typeeasy.cn","leaderName":"","limitAccess":"否","mainId":190000215493,"mainLicence":"粤ICP备13015957号","natureName":"企业","serviceId":190000382778,"serviceLicence":"粤ICP备13015957号-3","serviceName":"金山打字通官方网站","unitName":"珠海金山办公软件有限公司","updateRecordTime":"2020-06-09 10:02:23"},{"contentTypeName":"文化、文化、文化、文化、文化","domain":"typeeasy.net","domainId":190000494477,"homeUrl":"www.typeeasy.cn","leaderName":"","limitAccess":"否","mainId":190000215493,"mainLicence":"粤ICP备13015957号","natureName":"企业","serviceId":190000382778,"serviceLicence":"粤ICP备13015957号-3","serviceName":"金山打字通官方网站","unitName":"珠海金山办公软件有限公司","updateRecordTime":"2020-06-09 10:02:23"},{"contentTypeName":"文化、文化、文化、文化、文化","domain":"51dzt.com","domainId":190000494478,"homeUrl":"www.51dzt.com","leaderName":"","limitAccess":"否","mainId":190000215493,"mainLicence":"粤ICP备13015957号","natureName":"企业","serviceId":190000382789,"serviceLicence":"粤ICP备13015957号-4","serviceName":"金山打字通官方网站","unitName":"珠海金山办公软件有限公司","updateRecordTime":"2020-06-09 10:02:23"},{"contentTypeName":"","domain":"qwps.com","domainId":190000557929,"homeUrl":"www.qwps.com","leaderName":"","limitAccess":"否","mainId":190000215493,"mainLicence":"粤ICP备13015957号","natureName":"企业","serviceId":190000437038,"serviceLicence":"粤ICP备13015957号-5","serviceName":"WPS云办公官方网站","unitName":"珠海金山办公软件有限公司","updateRecordTime":"2020-06-09 10:02:23"},{"contentTypeName":"","domain":"xiutangh5.cn","domainId":10004746663,"homeUrl":"www.wpsxiu.cn","leaderName":"","limitAccess":"否","mainId":190000215493,"mainLicence":"粤ICP备13015957号","natureName":"企业","serviceId":10001773618,"serviceLicence":"粤ICP备13015957号-13","serviceName":"秀堂","unitName":"珠海金山办公软件有限公司","updateRecordTime":"2020-06-09 10:02:23"},{"contentTypeName":"","domain":"docer.com","domainId":190000631971,"homeUrl":"www.docer.com","leaderName":"","limitAccess":"否","mainId":190000215493,"mainLicence":"粤ICP备13015957号","natureName":"企业","serviceId":190000501005,"serviceLicence":"粤ICP备13015957号-7","serviceName":"稻壳儿","unitName":"珠海金山办公软件有限公司","updateRecordTime":"2020-06-09 10:02:23"},{"contentTypeName":"","domain":"wpscdn.cn","domainId":190000780292,"homeUrl":"www.wpscdn.cn","leaderName":"","limitAccess":"否","mainId":190000215493,"mainLicence":"粤ICP备13015957号","natureName":"企业","serviceId":190000627062,"serviceLicence":"粤ICP备13015957号-9","serviceName":"WPS CDN源","unitName":"珠海金山办公软件有限公司","updateRecordTime":"2020-06-09 10:02:23"},{"contentTypeName":"","domain":"xiutang01.cn","domainId":10004924536,"homeUrl":"www.xiutang01.cn","leaderName":"","limitAccess":"否","mainId":190000215493,"mainLicence":"粤ICP备13015957号","natureName":"企业","serviceId":10001901050,"serviceLicence":"粤ICP备13015957号-22","serviceName":"WPS秀堂","unitName":"珠海金山办公软件有限公司","updateRecordTime":"2020-06-09 10:02:23"},{"contentTypeName":"","domain":"xiutang20.cn","domainId":10004924555,"homeUrl":"www.xiutang01.cn","leaderName":"","limitAccess":"否","mainId":190000215493,"mainLicence":"粤ICP备13015957号","natureName":"企业","serviceId":10001901050,"serviceLicence":"粤ICP备13015957号-22","serviceName":"WPS秀堂","unitName":"珠海金山办公软件有限公司","updateRecordTime":"2020-06-09 10:02:23"},{"contentTypeName":"","domain":"xiutang19.cn","domainId":10004924554,"homeUrl":"www.xiutang01.cn","leaderName":"","limitAccess":"否","mainId":190000215493,"mainLicence":"粤ICP备13015957号","natureName":"企业","serviceId":10001901050,"serviceLicence":"粤ICP备13015957号-22","serviceName":"WPS秀堂","unitName":"珠海金山办公软件有限公司","updateRecordTime":"2020-06-09 10:02:23"},{"contentTypeName":"","domain":"xiutang18.cn","domainId":10004924553,"homeUrl":"www.xiutang01.cn","leaderName":"","limitAccess":"否","mainId":190000215493,"mainLicence":"粤ICP备13015957号","natureName":"企业","serviceId":10001901050,"serviceLicence":"粤ICP备13015957号-22","serviceName":"WPS秀堂","unitName":"珠海金山办公软件有限公司","updateRecordTime":"2020-06-09 10:02:23"},{"contentTypeName":"","domain":"xiutang17.cn","domainId":10004924552,"homeUrl":"www.xiutang01.cn","leaderName":"","limitAccess":"否","mainId":190000215493,"mainLicence":"粤ICP备13015957号","natureName":"企业","serviceId":10001901050,"serviceLicence":"粤ICP备13015957号-22","serviceName":"WPS秀堂","unitName":"珠海金山办公软件有限公司","updateRecordTime":"2020-06-09 10:02:23"}],"navigatePages":8,"navigatepageNums":[1,2],"nextPage":2,"pageNum":1,"pageSize":40,"pages":2,"prePage":1,"size":40,"startRow":0,"total":54},"success":true}