{"code":200,"msg":"操作成功","params":{"endRow":13,"firstPage":1,"hasNextPage":false,"hasPreviousPage":true,"isFirstPage":false,"isLastPage":true,"lastPage":2,"list":[{"contentTypeName":"","domain":"xiutang14.cn","domainId":10004924549,"homeUrl":"www.xiutang01.cn","leaderName":"","limitAccess":"否","mainId":190000215493,"mainLicence":"粤ICP备13015957号","natureName":"企业","serviceId":10001901050,"serviceLicence":"粤ICP备13015957号-22","serviceName":"WPS秀堂","unitName":"珠海金山办公软件有限公司","updateRecordTime":"2020-06-09 10:02:23"},{"contentTypeName":"","domain":"xiutang12.cn","domainId":10004924547,"homeUrl":"www.xiutang01.cn","leaderName":"","limitAccess":"否","mainId":190000215493,"mainLicence":"粤ICP备13015957号","natureName":"企业","serviceId":10001901050,"serviceLicence":"粤ICP备13015957号-22","serviceName":"WPS秀堂","unitName":"珠海金山办公软件有限公司","updateRecordTime":"2020-06-09 10:02:23"},{"contentTypeName":"","domain":"xiutang11.cn","domainId":10004924546,"homeUrl":"www.xiutang01.cn","leaderName":"","limitAccess":"否","mainId":190000215493,"mainLicence":"粤ICP备13015957号","natureName":"企业","serviceId":10001901050,"serviceLicence":"粤ICP备13015957号-22","serviceName":"WPS秀堂","unitName":"珠海金山办公软件有限公司","updateRecordTime":"2020-06-09 10:02:23"},{"contentTypeName":"","domain":"xiutang10.cn","domainId":10004924545,"homeUrl":"www.xiutang01.cn","leaderName":"","limitAccess":"否","mainId":190000215493,"mainLicence":"粤ICP备13015957号","natureName":"企业","serviceId":10001901050,"serviceLicence":"粤ICP备13015957号-22","serviceName":"WPS秀堂","unitName":"珠海金山办公软件有限公司","updateRecordTime":"2020-06-09 10:02:23"},{"contentTypeName":"","domain":"xiutang07.cn","domainId":10004924542,"homeUrl":"www.xiutang01.cn","leaderName":"","limitAccess":"否","mainId":190000215493,"mainLicence":"粤ICP备13015957号","natureName":"企业","serviceId":10001901050,"serviceLicence":"粤ICP备13015957号-22","serviceName":"WPS秀堂","unitName":"珠海金山办公软件有限公司","updateRecordTime":"2020-06-09 10:02:23"},{"contentTypeName":"","domain":"xiutang05.cn","domainId":10004924540,"homeUrl":"www.xiutang01.cn","leaderName":"","limitAccess":"否","mainId":190000215493,"mainLicence":"粤ICP备13015957号","natureName":"企业","serviceId":10001901050,"serviceLicence":"粤ICP备13015957号-22","serviceName":"WPS秀堂","unitName":"珠海金山办公软件有限公司","updateRecordTime":"2020-06-09 10:02:23"},{"contentTypeName":"","domain":"zhishifanli.com.cn","domainId":10005094852,"homeUrl":"www.zhishifanli.com","leaderName":"","limitAccess":"否","mainId":190000215493,"mainLicence":"粤ICP备13015957号","natureName":"企业","serviceId":10002029313,"serviceLicence":"粤ICP备13015957号-27","serviceName":"知识返利","unitName":"珠海金山办公软件有限公司","updateRecordTime":"2020-06-09 10:02:23"},{"contentTypeName":"","domain":"zhishifanli.cn","domainId":10005094851,"homeUrl":"www.zhishifanli.com","leaderName":"","limitAccess":"否","mainId":190000215493,"mainLicence":"粤ICP备13015957号","natureName":"企业","serviceId":10002029313,"serviceLicence":"粤ICP备13015957号-27","serviceName":"知识返利","unitName":"珠海金山办公软件有限公司","updateRecordTime":"2020-06-09 10:02:23"},{"contentTypeName":"","domain":"wpsmail.net","domainId":10004622797,"homeUrl":"www.wpsmail.net","leaderName":"","limitAccess":"否","mainId":190000215493,"mainLicence":"粤ICP备13015957号","natureName":"企业","serviceId":10001684933,"serviceLicence":"粤ICP备13015957号-10","serviceName":"WPS邮箱","unitName":"珠海金山办公软件有限公司","updateRecordTime":"2020-06-09 10:02:23"},{"contentTypeName":"","domain":"z211.vip","domainId":10004641809,"homeUrl":"www.z211.vip","leaderName":"","limitAccess":"否","mainId":190000215493,"mainLicence":"粤ICP备13015957号","natureName":"企业","serviceId":10001699908,"serviceLicence":"粤ICP备13015957号-12","serviceName":"易传播","unitName":"珠海金山办公软件有限公司","updateRecordTime":"2020-06-09 10:02:23"},{"contentTypeName":"","domain":"qwps.cn","domainId":190000557930,"homeUrl":"www.qwps.com","leaderName":"","limitAccess":"否","mainId":190000215493,"mainLicence":"粤ICP备13015957号","natureName":"企业","serviceId":190000437038,"serviceLicence":"粤ICP备13015957号-5","serviceName":"WPS云办公官方网站","unitName":"珠海金山办公软件有限公司","updateRecordTime":"2020-06-09 10:02:23"},{"contentTypeName":"","domain":"z211.top","domainId":10004628195,"homeUrl":"www.z211.top","leaderName":"","limitAccess":"否","mainId":190000215493,"mainLicence":"粤ICP备13015957号","natureName":"企业","serviceId":10001689312,"serviceLicence":"粤ICP备13015957号-11","serviceName":"易推广","unitName":"珠海金山办公软件有限公司","updateRecordTime":"2020-06-09 10:02:23"},{"contentTypeName":"","domain":"wpspay.cn","domainId":10004758252,"homeUrl":"www.wpspay.cn","leaderName":"","limitAccess":"否","mainId":190000215493,"mainLicence":"粤ICP备13015957号","natureName":"企业","serviceId":10001781827,"serviceLicence":"粤ICP备13015957号-14","serviceName":"wps支付服务","unitName":"珠海金山办公软件有限公司","updateRecordTime":"2020-06-09 10:02:23"},{"contentTypeName":"","domain":"wpsxiu.cn","domainId":10004746664,"homeUrl":"www.wpsxiu.cn","leaderName":"","limitAccess":"否","mainId":190000215493,"mainLicence":"粤ICP备13015957号","natureName":"企业","serviceId":10001773618,"serviceLicence":"粤ICP备13015957号-13","serviceName":"秀堂","unitName":"珠海金山办公软件有限公司","updateRecordTime":"2020-06-09 10:02:23"}],"navigatePages":8,"navigatepageNums":[1,2],"nextPage":2,"pageNum":2,"pageSize":40,"pages":2,"prePage":1,"size":14,"startRow":0,"total":54},"success":true}